Design Route Status
                                               :      # nets :
   ------------------------------------------- : ----------- :
   # of logical nets.......................... :        5168 :
       # of nets not needing routing.......... :        1649 :
           # of internally routed nets........ :        1649 :
       # of routable nets..................... :        3519 :
           # of fully routed nets............. :        3519 :
       # of nets with routing errors.......... :           0 :
   ------------------------------------------- : ----------- :

